%!PS-Adobe-3.0 EPSF-3.0
%%Creator: cairo 1.16.0 (https://cairographics.org)
%%CreationDate: Sat Aug 26 14:39:48 2023
%%Pages: 1
%%DocumentData: Clean7Bit
%%LanguageLevel: 2
%%BoundingBox: 0 0 998 358
%%EndComments
%%BeginProlog
50 dict begin
/q { gsave } bind def
/Q { grestore } bind def
/cm { 6 array astore concat } bind def
/w { setlinewidth } bind def
/J { setlinecap } bind def
/j { setlinejoin } bind def
/M { setmiterlimit } bind def
/d { setdash } bind def
/m { moveto } bind def
/l { lineto } bind def
/c { curveto } bind def
/h { closepath } bind def
/re { exch dup neg 3 1 roll 5 3 roll moveto 0 rlineto
      0 exch rlineto 0 rlineto closepath } bind def
/S { stroke } bind def
/f { fill } bind def
/f* { eofill } bind def
/n { newpath } bind def
/W { clip } bind def
/W* { eoclip } bind def
/BT { } bind def
/ET { } bind def
/BDC { mark 3 1 roll /BDC pdfmark } bind def
/EMC { mark /EMC pdfmark } bind def
/cairo_store_point { /cairo_point_y exch def /cairo_point_x exch def } def
/Tj { show currentpoint cairo_store_point } bind def
/TJ {
  {
    dup
    type /stringtype eq
    { show } { -0.001 mul 0 cairo_font_matrix dtransform rmoveto } ifelse
  } forall
  currentpoint cairo_store_point
} bind def
/cairo_selectfont { cairo_font_matrix aload pop pop pop 0 0 6 array astore
    cairo_font exch selectfont cairo_point_x cairo_point_y moveto } bind def
/Tf { pop /cairo_font exch def /cairo_font_matrix where
      { pop cairo_selectfont } if } bind def
/Td { matrix translate cairo_font_matrix matrix concatmatrix dup
      /cairo_font_matrix exch def dup 4 get exch 5 get cairo_store_point
      /cairo_font where { pop cairo_selectfont } if } bind def
/Tm { 2 copy 8 2 roll 6 array astore /cairo_font_matrix exch def
      cairo_store_point /cairo_font where { pop cairo_selectfont } if } bind def
/g { setgray } bind def
/rg { setrgbcolor } bind def
/d1 { setcachedevice } bind def
/cairo_data_source {
  CairoDataIndex CairoData length lt
    { CairoData CairoDataIndex get /CairoDataIndex CairoDataIndex 1 add def }
    { () } ifelse
} def
/cairo_flush_ascii85_file { cairo_ascii85_file status { cairo_ascii85_file flushfile } if } def
/cairo_image { image cairo_flush_ascii85_file } def
/cairo_imagemask { imagemask cairo_flush_ascii85_file } def
%%EndProlog
%%BeginSetup
%%EndSetup
%%Page: 1 1
%%BeginPageSetup
%%PageBoundingBox: 0 0 998 358
%%EndPageSetup
q 0 0 998 358 rectclip
1 0 0 -1 0 358 cm q
Q q
386 0.562 20 357.438 re W n
0.215686 0.254902 0.317647 rg
396.082 0 m 401.484 0 405.863 4.465 405.863 9.973 c 405.863 349.148 l 405.863
 354.656 401.484 359.121 396.082 359.121 c 390.68 359.121 386.301 354.656
 386.301 349.148 c 386.301 9.973 l 386.301 4.465 390.68 0 396.082 0 c h
396.082 0 m f
Q q
457.074 29.926 540.898 216.926 re W n
0.215686 0.254902 0.317647 rg
590.184 45.508 m 587.219 91.676 l 586.125 91.996 l 578.355 80.363 565.156
 72.832 546.527 69.398 c 540.645 68.238 535 67.66 529.594 67.66 c 524.184
 67.66 519.57 68.129 515.75 69.074 c 511.93 70.02 508.668 71.371 505.961
 73.133 c 500.211 76.91 497.336 81.844 497.336 87.941 c 497.336 95.883 499.844
 101.848 504.867 105.84 c 511.137 110.648 521.566 114.039 536.16 116.016
 c 550.711 117.945 562.387 120.586 571.188 123.934 c 579.988 127.281 587.219
 131.531 592.887 136.684 c 603.574 146.297 608.918 159.906 608.918 177.504
 c 608.918 200.555 600.227 218.328 582.844 230.82 c 567.945 241.508 549.188
 246.852 526.566 246.852 c 508.324 246.852 490.293 243.395 472.48 236.484
 c 466.598 234.168 461.469 231.484 457.09 228.438 c 458.766 175.961 l 459.41
 175.508 l 472.414 197.918 493.75 209.121 523.41 209.121 c 544.445 209.121
 558.375 204.035 565.199 193.859 c 567.52 190.426 568.676 186.586 568.676
 182.336 c 568.676 178.086 567.988 174.566 566.617 171.773 c 565.242 169.027
 562.988 166.645 559.855 164.629 c 553.805 160.637 543.586 157.973 529.207
 156.645 c 514.871 155.27 503.129 152.695 493.984 148.918 c 484.887 145.141
 477.609 140.48 472.16 134.945 c 462.285 124.855 457.348 110.797 457.348
 92.77 c 457.348 74.141 463.918 59.051 477.051 47.504 c 490.359 35.785 508.301
 29.926 530.879 29.926 c 553.461 29.926 573.227 35.121 590.184 45.508 c 
h
656.375 242.926 m 656.375 33.211 l 666.848 33.641 673.18 33.855 675.367
 33.855 c 686.699 33.855 l 692.281 33.855 696.746 33.426 700.094 32.566 
c 699.902 242.926 l h
834.152 243.051 m 833.828 243.566 l 830.695 243.137 825.352 242.926 817.797
 242.926 c 799.574 242.926 l 796.012 242.926 793.07 243.031 790.754 243.246
 c 790.625 242.926 l 791.012 242.195 791.203 241.355 791.203 240.414 c 791.203
 239.469 791.141 238.48 791.012 237.449 c 790.84 236.379 790.41 234.488 
789.723 231.785 c 789.035 229.039 788.027 225.109 786.695 220 c 733.254 
33.211 l 739.949 33.641 748.062 33.855 757.594 33.855 c 767.121 33.855 773.305
 33.426 776.137 32.566 c 813.223 174.867 l 849.41 33.211 l 850.957 33.34
 852.371 33.445 853.66 33.531 c 857.074 33.531 l 860.551 33.746 864.906 
33.855 870.145 33.855 c 875.379 33.855 880.77 33.426 886.305 32.566 c 923.137
 174.867 l 954.688 33.211 l 960.996 33.641 969.238 33.855 979.41 33.855 
c 989.586 33.855 995.766 33.426 997.953 32.566 c 952.691 198.43 l 946.895
 217.492 943.848 228.801 943.547 232.363 c 943.246 235.926 943.098 238.395
 943.098 239.77 c 943.098 241.141 943.309 242.238 943.738 243.051 c 943.418
 243.566 l 940.07 243.137 934.77 242.926 927.516 242.926 c 921.246 242.926
 915.539 242.926 910.387 242.926 c 905.234 242.926 901.523 243.031 899.246
 243.246 c 899.055 242.926 l 899.484 242.195 899.699 241.355 899.699 240.414
 c 899.699 239.469 899.656 238.523 899.57 237.578 c 899.441 236.637 899.141
 234.832 898.668 232.172 c 898.195 229.508 897.445 225.539 896.414 220.258
 c 892.164 198.883 l 866.344 100.949 l 841.879 198.43 l 836.812 218.434 
834.172 229.961 833.957 233.008 c 833.57 238.762 833.637 242.109 834.152
 243.051 c h
834.152 243.051 m f
Q q
457.074 298.062 317.562 31.133 re W n
0.215686 0.254902 0.317647 rg
471.93 329.195 m 469.812 329.195 467.848 328.777 466.039 327.945 c 464.23
 327.121 462.66 325.988 461.336 324.539 c 460.004 323.098 458.965 321.426
 458.219 319.516 c 457.465 317.613 457.086 315.602 457.086 313.484 c 457.086
 310.633 457.723 308.055 458.992 305.746 c 460.262 303.434 462.016 301.574
 464.25 300.164 c 466.48 298.762 468.984 298.062 471.758 298.062 c 474.605
 298.062 477.129 298.773 479.324 300.199 c 481.52 301.625 483.262 303.5 
484.555 305.824 c 485.844 308.16 486.484 310.711 486.484 313.484 c 486.484
 313.715 486.484 313.945 486.484 314.176 c 486.484 314.41 486.465 314.602
 486.43 314.754 c 460.09 314.754 l 460.242 317.027 460.879 319.086 461.996
 320.934 c 463.113 322.785 464.547 324.234 466.305 325.289 c 468.051 326.352
 469.965 326.883 472.047 326.883 c 474.125 326.883 476.09 326.344 477.938
 325.266 c 479.785 324.188 481.074 322.801 481.809 321.109 c 484.348 321.801
 l 483.77 323.227 482.859 324.496 481.609 325.613 c 480.355 326.73 478.891
 327.605 477.223 328.234 c 475.543 328.875 473.777 329.195 471.93 329.195
 c h
459.973 312.504 m 483.715 312.504 l 483.559 310.152 482.941 308.074 481.863
 306.266 c 480.785 304.453 479.375 303.031 477.625 301.988 c 475.871 300.949
 473.934 300.43 471.816 300.43 c 469.695 300.43 467.773 300.949 466.039 
301.988 c 464.305 303.031 462.902 304.453 461.824 306.266 c 460.746 308.074
 460.129 310.152 459.973 312.504 c h
505.605 329.195 m 503.523 329.195 501.578 328.777 499.77 327.945 c 497.961
 327.121 496.383 325.988 495.035 324.539 c 493.688 323.098 492.637 321.438
 491.879 319.551 c 491.133 317.66 490.762 315.641 490.762 313.484 c 490.762
 310.598 491.395 307.996 492.664 305.688 c 493.938 303.375 495.688 301.527
 497.922 300.141 c 500.156 298.754 502.695 298.062 505.547 298.062 c 508.281
 298.062 510.688 298.688 512.766 299.934 c 514.844 301.188 516.406 302.895
 517.445 305.051 c 514.613 305.977 l 513.73 304.32 512.465 303.02 510.824
 302.07 c 509.191 301.133 507.395 300.66 505.43 300.66 c 503.234 300.66 
501.254 301.219 499.48 302.336 c 497.711 303.453 496.293 304.98 495.23 306.922
 c 494.176 308.871 493.648 311.059 493.648 313.484 c 493.648 315.871 494.188
 318.066 495.266 320.07 c 496.344 322.07 497.777 323.656 499.562 324.828
 c 501.355 326.008 503.332 326.594 505.488 326.594 c 506.875 326.594 508.23
 326.332 509.555 325.809 c 510.887 325.293 512.043 324.613 513.02 323.766
 c 514.008 322.918 514.652 322.012 514.961 321.051 c 517.793 321.859 l 517.289
 323.285 516.426 324.543 515.191 325.637 c 513.961 326.738 512.523 327.605
 510.883 328.234 c 509.25 328.875 507.492 329.195 505.605 329.195 c h
536.621 329.195 m 534.504 329.195 532.547 328.789 530.754 327.98 c 528.965
 327.172 527.418 326.043 526.109 324.598 c 524.801 323.156 523.777 321.492
 523.047 319.605 c 522.316 317.719 521.949 315.738 521.949 313.656 c 521.949
 311.539 522.316 309.547 523.047 307.672 c 523.777 305.809 524.809 304.152
 526.133 302.707 c 527.465 301.266 529.023 300.129 530.809 299.297 c 532.605
 298.473 534.543 298.062 536.621 298.062 c 538.699 298.062 540.625 298.473
 542.398 299.297 c 544.168 300.129 545.727 301.266 547.074 302.707 c 548.422
 304.152 549.461 305.809 550.195 307.672 c 550.926 309.547 551.293 311.539
 551.293 313.656 c 551.293 315.738 550.926 317.719 550.195 319.605 c 549.461
 321.492 548.43 323.156 547.098 324.598 c 545.773 326.043 544.215 327.172
 542.418 327.98 c 540.633 328.789 538.699 329.195 536.621 329.195 c h
524.836 313.773 m 524.836 316.121 525.367 318.266 526.422 320.207 c 527.484
 322.156 528.898 323.707 530.672 324.863 c 532.434 326.02 534.398 326.594
 536.562 326.594 c 538.719 326.594 540.691 326.008 542.477 324.828 c 544.266
 323.656 545.688 322.078 546.75 320.094 c 547.809 318.113 548.336 315.949
 548.336 313.602 c 548.336 311.25 547.809 309.094 546.75 307.129 c 545.688
 305.168 544.266 303.598 542.477 302.418 c 540.691 301.246 538.738 300.66
 536.621 300.66 c 534.465 300.66 532.496 301.258 530.719 302.453 c 528.953
 303.645 527.535 305.223 526.453 307.188 c 525.375 309.152 524.836 311.348
 524.836 313.773 c h
602.34 311.348 m 602.34 328.617 l 599.453 328.617 l 599.453 311.867 l 599.453
 308.055 598.867 305.242 597.695 303.434 c 596.516 301.625 594.715 300.719
 592.289 300.719 c 589.824 300.719 587.641 301.594 585.738 303.34 c 583.828
 305.098 582.488 307.344 581.719 310.078 c 581.719 328.617 l 578.832 328.617
 l 578.832 311.867 l 578.832 308.016 578.254 305.195 577.098 303.398 c 575.941
 301.613 574.152 300.719 571.727 300.719 c 569.262 300.719 567.078 301.574
 565.176 303.285 c 563.266 305 561.906 307.246 561.098 310.02 c 561.098 
328.617 l 558.211 328.617 l 558.211 298.582 l 560.926 298.582 l 560.926 
305.746 l 562.195 303.281 563.832 301.383 565.836 300.051 c 567.836 298.727
 570.031 298.062 572.418 298.062 c 574.922 298.062 576.977 298.801 578.578
 300.281 c 580.172 301.766 581.121 303.742 581.43 306.207 c 582.855 303.512
 584.551 301.477 586.512 300.105 c 588.477 298.742 590.711 298.062 593.215
 298.062 c 594.867 298.062 596.266 298.359 597.406 298.953 c 598.539 299.551
 599.48 300.418 600.238 301.551 c 600.984 302.691 601.523 304.09 601.855
 305.746 c 602.176 307.398 602.34 309.27 602.34 311.348 c h
655.188 311.348 m 655.188 328.617 l 652.301 328.617 l 652.301 311.867 l
 652.301 308.055 651.711 305.242 650.535 303.434 c 649.363 301.625 647.566
 300.719 645.141 300.719 c 642.676 300.719 640.492 301.594 638.59 303.34
 c 636.68 305.098 635.34 307.344 634.57 310.078 c 634.57 328.617 l 631.68
 328.617 l 631.68 311.867 l 631.68 308.016 631.102 305.195 629.949 303.398
 c 628.793 301.613 627.004 300.719 624.578 300.719 c 622.113 300.719 619.93
 301.574 618.027 303.285 c 616.117 305 614.758 307.246 613.949 310.02 c 
613.949 328.617 l 611.062 328.617 l 611.062 298.582 l 613.777 298.582 l 
613.777 305.746 l 615.047 303.281 616.684 301.383 618.684 300.051 c 620.688
 298.727 622.883 298.062 625.27 298.062 c 627.773 298.062 629.824 298.801
 631.426 300.281 c 633.02 301.766 633.973 303.742 634.281 306.207 c 635.703
 303.512 637.398 301.477 639.363 300.105 c 641.328 298.742 643.559 298.062
 646.062 298.062 c 647.719 298.062 649.113 298.359 650.246 298.953 c 651.383
 299.551 652.332 300.418 653.086 301.551 c 653.832 302.691 654.371 304.09
 654.703 305.746 c 655.027 307.398 655.188 309.27 655.188 311.348 c h
676.676 329.195 m 674.559 329.195 672.594 328.777 670.785 327.945 c 668.973
 327.121 667.402 325.988 666.07 324.539 c 664.746 323.098 663.707 321.426
 662.953 319.516 c 662.203 317.613 661.832 315.602 661.832 313.484 c 661.832
 310.633 662.465 308.055 663.738 305.746 c 665.008 303.434 666.762 301.574
 668.992 300.164 c 671.227 298.762 673.73 298.062 676.504 298.062 c 679.352
 298.062 681.875 298.773 684.07 300.199 c 686.262 301.625 688.004 303.5 
689.289 305.824 c 690.582 308.16 691.23 310.711 691.23 313.484 c 691.23 
313.715 691.23 313.945 691.23 314.176 c 691.23 314.41 691.211 314.602 691.172
 314.754 c 664.836 314.754 l 664.988 317.027 665.625 319.086 666.742 320.934
 c 667.859 322.785 669.289 324.234 671.039 325.289 c 672.793 326.352 674.711
 326.883 676.793 326.883 c 678.871 326.883 680.836 326.344 682.684 325.266
 c 684.531 324.188 685.82 322.801 686.551 321.109 c 689.094 321.801 l 688.516
 323.227 687.602 324.496 686.344 325.613 c 685.098 326.73 683.633 327.605
 681.953 328.234 c 680.285 328.875 678.523 329.195 676.676 329.195 c h
664.719 312.504 m 688.457 312.504 l 688.305 310.152 687.688 308.074 686.609
 306.266 c 685.531 304.453 684.113 303.031 682.359 301.988 c 680.609 300.949
 678.68 300.43 676.559 300.43 c 674.441 300.43 672.516 300.949 670.785 301.988
 c 669.051 303.031 667.645 304.453 666.566 306.266 c 665.488 308.074 664.875
 310.152 664.719 312.504 c h
711.793 298.465 m 711.793 301.18 l 709.098 301.258 706.738 302.055 704.711
 303.574 c 702.695 305.098 701.281 307.188 700.473 309.844 c 700.473 328.617
 l 697.586 328.617 l 697.586 298.582 l 700.355 298.582 l 700.355 305.977
 l 701.398 303.859 702.781 302.133 704.516 300.801 c 706.25 299.477 708.078
 298.719 710.004 298.523 c 710.387 298.484 710.734 298.465 711.043 298.465
 c 711.352 298.465 711.602 298.465 711.793 298.465 c h
728.879 329.195 m 726.801 329.195 724.855 328.777 723.043 327.945 c 721.234
 327.121 719.656 325.988 718.309 324.539 c 716.961 323.098 715.914 321.438
 715.168 319.551 c 714.41 317.66 714.035 315.641 714.035 313.484 c 714.035
 310.598 714.668 307.996 715.941 305.688 c 717.211 303.375 718.965 301.527
 721.195 300.141 c 723.43 298.754 725.973 298.062 728.82 298.062 c 731.555
 298.062 733.961 298.688 736.039 299.934 c 738.121 301.188 739.68 302.895
 740.719 305.051 c 737.891 305.977 l 737.004 304.32 735.742 303.02 734.113
 302.07 c 732.473 301.133 730.668 300.66 728.707 300.66 c 726.512 300.66
 724.527 301.219 722.758 302.336 c 720.984 303.453 719.57 304.98 718.516
 306.922 c 717.453 308.871 716.922 311.059 716.922 313.484 c 716.922 315.871
 717.461 318.066 718.539 320.07 c 719.617 322.07 721.055 323.656 722.848
 324.828 c 724.637 326.008 726.605 326.594 728.762 326.594 c 730.148 326.594
 731.508 326.332 732.84 325.809 c 734.164 325.293 735.32 324.613 736.305
 323.766 c 737.285 322.918 737.926 322.012 738.234 321.051 c 741.066 321.859
 l 740.566 323.285 739.699 324.543 738.465 325.637 c 737.234 326.738 735.801
 327.605 734.168 328.234 c 732.527 328.875 730.766 329.195 728.879 329.195
 c h
760.07 329.195 m 757.949 329.195 755.988 328.777 754.176 327.945 c 752.367
 327.121 750.801 325.988 749.477 324.539 c 748.145 323.098 747.102 321.426
 746.355 319.516 c 745.602 317.613 745.223 315.602 745.223 313.484 c 745.223
 310.633 745.859 308.055 747.129 305.746 c 748.402 303.434 750.152 301.574
 752.387 300.164 c 754.621 298.762 757.121 298.062 759.895 298.062 c 762.746
 298.062 765.266 298.773 767.461 300.199 c 769.656 301.625 771.402 303.5
 772.695 305.824 c 773.98 308.16 774.625 310.711 774.625 313.484 c 774.625
 313.715 774.625 313.945 774.625 314.176 c 774.625 314.41 774.605 314.602
 774.566 314.754 c 748.227 314.754 l 748.383 317.027 749.016 319.086 750.133
 320.934 c 751.25 322.785 752.688 324.234 754.441 325.289 c 756.191 326.352
 758.105 326.883 760.184 326.883 c 762.262 326.883 764.227 326.344 766.074
 325.266 c 767.922 324.188 769.215 322.801 769.945 321.109 c 772.488 321.801
 l 771.91 323.227 770.996 324.496 769.75 325.613 c 768.492 326.73 767.031
 327.605 765.359 328.234 c 763.68 328.875 761.918 329.195 760.07 329.195
 c h
748.113 312.504 m 771.852 312.504 l 771.699 310.152 771.082 308.074 770.004
 306.266 c 768.926 304.453 767.512 303.031 765.762 301.988 c 764.008 300.949
 762.07 300.43 759.953 300.43 c 757.836 300.43 755.91 300.949 754.176 301.988
 c 752.445 303.031 751.039 304.453 749.961 306.266 c 748.883 308.074 748.266
 310.152 748.113 312.504 c h
748.113 312.504 m f
Q q
0.816 12.422 334.273 334.273 re W n
0.215686 0.254902 0.317647 rg
167.953 12.422 m 75.469 12.422 0.816 87.078 0.816 179.562 c 0.816 271.672
 75.469 346.699 167.953 346.699 c 260.438 346.699 335.09 271.672 335.09 
179.562 c 335.09 87.078 260.438 12.422 167.953 12.422 c h
167.953 279.844 m 112.613 279.844 67.672 234.902 67.672 179.562 c 67.672
 124.219 112.613 79.277 167.953 79.277 c 223.293 79.277 268.234 124.219 
268.234 179.562 c 268.234 234.902 223.293 279.844 167.953 279.844 c h
131.926 107.879 m 108.527 119.762 91.812 142.418 88.469 169.531 c 118.184
 169.531 l 118.926 145.02 124.125 123.848 131.926 107.879 c h
167.953 256.445 m 179.469 256.445 195.066 231.188 197.668 189.59 c 138.238
 189.59 l 140.84 231.188 156.438 256.445 167.953 256.445 c h
88.469 189.59 m 92.184 217.445 109.641 240.844 134.527 252.359 c 125.613
 236.758 119.668 215.215 118.184 189.59 c h
203.98 107.879 m 211.781 123.848 216.98 145.02 218.094 169.531 c 247.438
 169.531 l 244.094 142.418 227.379 119.762 203.98 107.879 c h
167.953 99.336 m 156.066 99.336 140.098 125.707 138.238 169.531 c 197.668
 169.531 l 195.809 125.707 179.84 99.336 167.953 99.336 c h
201.379 251.988 m 225.895 240.473 243.723 217.445 247.438 189.219 c 217.723
 189.219 l 216.238 214.844 210.668 236.758 201.379 251.988 c h
201.379 251.988 m f
Q Q
showpage
%%Trailer
end
%%EOF
