%!PS-Adobe-3.0 EPSF-3.0
%%Creator: cairo 1.16.0 (https://cairographics.org)
%%CreationDate: Sat Aug 26 14:39:48 2023
%%Pages: 1
%%DocumentData: Clean7Bit
%%LanguageLevel: 2
%%BoundingBox: 0 0 1000 1000
%%EndComments
%%BeginProlog
50 dict begin
/q { gsave } bind def
/Q { grestore } bind def
/cm { 6 array astore concat } bind def
/w { setlinewidth } bind def
/J { setlinecap } bind def
/j { setlinejoin } bind def
/M { setmiterlimit } bind def
/d { setdash } bind def
/m { moveto } bind def
/l { lineto } bind def
/c { curveto } bind def
/h { closepath } bind def
/re { exch dup neg 3 1 roll 5 3 roll moveto 0 rlineto
      0 exch rlineto 0 rlineto closepath } bind def
/S { stroke } bind def
/f { fill } bind def
/f* { eofill } bind def
/n { newpath } bind def
/W { clip } bind def
/W* { eoclip } bind def
/BT { } bind def
/ET { } bind def
/BDC { mark 3 1 roll /BDC pdfmark } bind def
/EMC { mark /EMC pdfmark } bind def
/cairo_store_point { /cairo_point_y exch def /cairo_point_x exch def } def
/Tj { show currentpoint cairo_store_point } bind def
/TJ {
  {
    dup
    type /stringtype eq
    { show } { -0.001 mul 0 cairo_font_matrix dtransform rmoveto } ifelse
  } forall
  currentpoint cairo_store_point
} bind def
/cairo_selectfont { cairo_font_matrix aload pop pop pop 0 0 6 array astore
    cairo_font exch selectfont cairo_point_x cairo_point_y moveto } bind def
/Tf { pop /cairo_font exch def /cairo_font_matrix where
      { pop cairo_selectfont } if } bind def
/Td { matrix translate cairo_font_matrix matrix concatmatrix dup
      /cairo_font_matrix exch def dup 4 get exch 5 get cairo_store_point
      /cairo_font where { pop cairo_selectfont } if } bind def
/Tm { 2 copy 8 2 roll 6 array astore /cairo_font_matrix exch def
      cairo_store_point /cairo_font where { pop cairo_selectfont } if } bind def
/g { setgray } bind def
/rg { setrgbcolor } bind def
/d1 { setcachedevice } bind def
/cairo_data_source {
  CairoDataIndex CairoData length lt
    { CairoData CairoDataIndex get /CairoDataIndex CairoDataIndex 1 add def }
    { () } ifelse
} def
/cairo_flush_ascii85_file { cairo_ascii85_file status { cairo_ascii85_file flushfile } if } def
/cairo_image { image cairo_flush_ascii85_file } def
/cairo_imagemask { imagemask cairo_flush_ascii85_file } def
%%EndProlog
%%BeginSetup
%%EndSetup
%%Page: 1 1
%%BeginPageSetup
%%PageBoundingBox: 0 0 1000 1000
%%EndPageSetup
q 0 0 1000 1000 rectclip
1 0 0 -1 0 1000 cm q
1 g
0 0 1000 1000 rectfill
Q q
420 375.094 15 250.602 re W n
0 g
427.258 374.699 m 431.039 374.699 434.105 377.824 434.105 381.68 c 434.105
 619.105 l 434.105 622.961 431.039 626.086 427.258 626.086 c 423.477 626.086
 420.41 622.961 420.41 619.105 c 420.41 381.68 l 420.41 377.824 423.477 
374.699 427.258 374.699 c h
427.258 374.699 m f
Q q
469.953 395.648 378.625 151.848 re W n
0 g
563.129 406.555 m 561.055 438.871 l 560.289 439.098 l 554.848 430.957 545.609
 425.684 532.57 423.277 c 528.453 422.465 524.5 422.062 520.715 422.062 
c 516.93 422.062 513.699 422.391 511.023 423.051 c 508.352 423.715 506.066
 424.66 504.172 425.891 c 500.148 428.535 498.133 431.992 498.133 436.258
 c 498.133 441.816 499.891 445.992 503.406 448.789 c 507.793 452.152 515.098
 454.527 525.312 455.91 c 535.5 457.262 543.672 459.109 549.832 461.453 
c 555.992 463.797 561.055 466.773 565.02 470.379 c 572.504 477.109 576.242
 486.633 576.242 498.953 c 576.242 515.09 570.16 527.527 557.988 536.273
 c 547.562 543.754 534.434 547.496 518.598 547.496 c 505.828 547.496 493.207
 545.078 480.734 540.238 c 476.621 538.617 473.027 536.738 469.965 534.605
 c 471.137 497.871 l 471.586 497.555 l 480.691 513.242 495.625 521.086 516.387
 521.086 c 531.113 521.086 540.863 517.523 545.641 510.402 c 547.262 508
 548.074 505.309 548.074 502.336 c 548.074 499.359 547.594 496.895 546.633
 494.941 c 545.668 493.02 544.094 491.352 541.898 489.938 c 537.664 487.145
 530.512 485.281 520.445 484.352 c 510.41 483.391 502.191 481.586 495.789
 478.941 c 489.422 476.297 484.328 473.039 480.512 469.16 c 473.602 462.102
 470.145 452.258 470.145 439.641 c 470.145 426.598 474.742 416.035 483.938
 407.953 c 493.25 399.75 505.812 395.648 521.617 395.648 c 537.422 395.648
 551.258 399.285 563.129 406.555 c h
609.461 544.746 m 609.461 397.949 l 616.793 398.246 621.227 398.398 622.758
 398.398 c 630.691 398.398 l 634.598 398.398 637.723 398.098 640.066 397.496
 c 639.93 544.746 l h
733.906 544.836 m 733.68 545.199 l 731.488 544.898 727.746 544.746 722.457
 544.746 c 709.703 544.746 l 707.207 544.746 705.148 544.82 703.527 544.973
 c 703.438 544.746 l 703.707 544.234 703.844 543.648 703.844 542.988 c 703.844
 542.328 703.797 541.637 703.707 540.914 c 703.586 540.164 703.285 538.844
 702.805 536.949 c 702.324 535.027 701.617 532.277 700.688 528.699 c 663.277
 397.949 l 667.965 398.246 673.645 398.398 680.316 398.398 c 686.984 398.398
 691.312 398.098 693.297 397.496 c 719.258 497.105 l 744.586 397.949 l 745.668
 398.039 746.66 398.113 747.562 398.172 c 749.949 398.172 l 752.387 398.324
 755.434 398.398 759.102 398.398 c 762.766 398.398 766.539 398.098 770.414
 397.496 c 796.195 497.105 l 818.281 397.949 l 822.695 398.246 828.465 398.398
 835.586 398.398 c 842.711 398.398 847.035 398.098 848.57 397.496 c 816.883
 513.602 l 812.828 526.941 810.691 534.859 810.484 537.355 c 810.273 539.848
 810.168 541.578 810.168 542.539 c 810.168 543.5 810.316 544.266 810.617
 544.836 c 810.391 545.199 l 808.047 544.898 804.336 544.746 799.258 544.746
 c 794.871 544.746 790.875 544.746 787.27 544.746 c 783.664 544.746 781.066
 544.82 779.473 544.973 c 779.34 544.746 l 779.637 544.234 779.789 543.648
 779.789 542.988 c 779.789 542.328 779.758 541.668 779.699 541.004 c 779.609
 540.344 779.398 539.082 779.066 537.219 c 778.738 535.355 778.211 532.578
 777.488 528.883 c 774.516 513.918 l 756.441 445.363 l 739.312 513.602 l
 735.77 527.605 733.922 535.672 733.77 537.805 c 733.5 541.832 733.543 544.176
 733.906 544.836 c h
733.906 544.836 m f
Q q
469.953 583.344 222.293 21.793 re W n
0 g
480.352 605.137 m 478.867 605.137 477.492 604.844 476.227 604.262 c 474.961
 603.688 473.863 602.891 472.938 601.879 c 472.004 600.871 471.277 599.695
 470.754 598.359 c 470.223 597.027 469.961 595.621 469.961 594.141 c 469.961
 592.145 470.406 590.34 471.293 588.723 c 472.184 587.105 473.41 585.801
 474.973 584.816 c 476.539 583.836 478.289 583.344 480.23 583.344 c 482.223
 583.344 483.988 583.844 485.527 584.84 c 487.062 585.836 488.285 587.148
 489.191 588.777 c 490.09 590.41 490.539 592.199 490.539 594.141 c 490.539
 594.301 490.539 594.461 490.539 594.625 c 490.539 594.785 490.527 594.922
 490.5 595.027 c 472.062 595.027 l 472.172 596.617 472.617 598.062 473.398
 599.355 c 474.18 600.648 475.184 601.664 476.414 602.402 c 477.637 603.148
 478.977 603.52 480.434 603.52 c 481.887 603.52 483.262 603.141 484.555 
602.387 c 485.852 601.633 486.754 600.66 487.266 599.477 c 489.043 599.961
 l 488.641 600.957 488 601.848 487.129 602.629 c 486.25 603.41 485.223 604.023
 484.055 604.465 c 482.879 604.914 481.645 605.137 480.352 605.137 c h
471.98 593.453 m 488.598 593.453 l 488.492 591.809 488.059 590.352 487.305
 589.086 c 486.551 587.816 485.562 586.82 484.336 586.094 c 483.109 585.367
 481.754 585 480.27 585 c 478.789 585 477.441 585.367 476.227 586.094 c 
475.016 586.82 474.031 587.816 473.277 589.086 c 472.52 590.352 472.09 591.809
 471.98 593.453 c h
503.922 605.137 m 502.469 605.137 501.105 604.844 499.84 604.262 c 498.574
 603.688 497.469 602.891 496.523 601.879 c 495.582 600.871 494.844 599.703
 494.316 598.383 c 493.793 597.062 493.531 595.648 493.531 594.141 c 493.531
 592.117 493.977 590.297 494.867 588.68 c 495.754 587.062 496.98 585.77 
498.547 584.801 c 500.109 583.828 501.887 583.344 503.883 583.344 c 505.797
 583.344 507.48 583.781 508.938 584.652 c 510.391 585.531 511.484 586.727
 512.211 588.234 c 510.23 588.883 l 509.609 587.723 508.727 586.812 507.578
 586.148 c 506.434 585.492 505.176 585.164 503.801 585.164 c 502.266 585.164
 500.875 585.555 499.637 586.336 c 498.398 587.117 497.406 588.188 496.66
 589.547 c 495.922 590.91 495.555 592.441 495.555 594.141 c 495.555 595.809
 495.93 597.348 496.684 598.75 c 497.441 600.148 498.441 601.262 499.695
 602.078 c 500.949 602.906 502.332 603.316 503.844 603.316 c 504.812 603.316
 505.762 603.133 506.688 602.766 c 507.621 602.406 508.43 601.93 509.113
 601.336 c 509.805 600.742 510.258 600.109 510.473 599.434 c 512.453 600
 l 512.102 601 511.496 601.879 510.633 602.645 c 509.773 603.418 508.766
 604.023 507.617 604.465 c 506.477 604.914 505.242 605.137 503.922 605.137
 c h
525.633 605.137 m 524.152 605.137 522.781 604.852 521.527 604.289 c 520.277
 603.723 519.191 602.93 518.277 601.918 c 517.359 600.91 516.645 599.746
 516.133 598.426 c 515.621 597.105 515.363 595.715 515.363 594.262 c 515.363
 592.777 515.621 591.383 516.133 590.07 c 516.645 588.766 517.363 587.609
 518.293 586.594 c 519.227 585.586 520.316 584.793 521.566 584.207 c 522.824
 583.633 524.18 583.344 525.633 583.344 c 527.09 583.344 528.438 583.633
 529.676 584.207 c 530.918 584.793 532.008 585.586 532.953 586.594 c 533.895
 587.609 534.625 588.766 535.137 590.07 c 535.648 591.383 535.902 592.777
 535.902 594.262 c 535.902 595.715 535.648 597.105 535.137 598.426 c 534.625
 599.746 533.902 600.91 532.969 601.918 c 532.043 602.93 530.949 603.723
 529.695 604.289 c 528.441 604.852 527.09 605.137 525.633 605.137 c h
517.387 594.34 m 517.387 595.984 517.754 597.488 518.496 598.844 c 519.238
 600.211 520.23 601.297 521.469 602.105 c 522.703 602.914 524.078 603.316
 525.594 603.316 c 527.102 603.316 528.484 602.906 529.734 602.078 c 530.984
 601.262 531.98 600.156 532.727 598.766 c 533.465 597.379 533.836 595.863
 533.836 594.219 c 533.836 592.574 533.465 591.066 532.727 589.691 c 531.98
 588.316 530.984 587.219 529.734 586.391 c 528.484 585.574 527.117 585.164
 525.633 585.164 c 524.125 585.164 522.746 585.582 521.504 586.418 c 520.27
 587.254 519.273 588.355 518.52 589.73 c 517.766 591.105 517.387 592.645
 517.387 594.34 c h
571.637 592.645 m 571.637 604.73 l 569.617 604.73 l 569.617 593.008 l 569.617
 590.34 569.207 588.371 568.387 587.105 c 567.562 585.836 566.301 585.203
 564.602 585.203 c 562.879 585.203 561.348 585.816 560.016 587.039 c 558.68
 588.27 557.742 589.84 557.203 591.754 c 557.203 604.73 l 555.184 604.73
 l 555.184 593.008 l 555.184 590.312 554.777 588.336 553.969 587.078 c 553.16
 585.828 551.906 585.203 550.207 585.203 c 548.484 585.203 546.957 585.801
 545.625 587 c 544.285 588.199 543.336 589.773 542.77 591.715 c 542.77 604.73
 l 540.746 604.73 l 540.746 583.707 l 542.648 583.707 l 542.648 588.723 
l 543.539 586.996 544.684 585.668 546.086 584.734 c 547.488 583.809 549.023
 583.344 550.695 583.344 c 552.445 583.344 553.883 583.859 555.004 584.895
 c 556.121 585.938 556.785 587.32 557 589.043 c 558 587.156 559.184 585.734
 560.559 584.773 c 561.934 583.82 563.496 583.344 565.25 583.344 c 566.41
 583.344 567.387 583.551 568.184 583.965 c 568.977 584.387 569.637 584.992
 570.164 585.785 c 570.688 586.582 571.066 587.562 571.297 588.723 c 571.523
 589.879 571.637 591.188 571.637 592.645 c h
608.633 592.645 m 608.633 604.73 l 606.609 604.73 l 606.609 593.008 l 606.609
 590.34 606.199 588.371 605.375 587.105 c 604.555 585.836 603.297 585.203
 601.598 585.203 c 599.871 585.203 598.344 585.816 597.012 587.039 c 595.676
 588.27 594.738 589.84 594.199 591.754 c 594.199 604.73 l 592.176 604.73
 l 592.176 593.008 l 592.176 590.312 591.773 588.336 590.965 587.078 c 590.156
 585.828 588.902 585.203 587.203 585.203 c 585.48 585.203 583.949 585.801
 582.617 587 c 581.281 588.199 580.332 589.773 579.766 591.715 c 579.766
 604.73 l 577.742 604.73 l 577.742 583.707 l 579.645 583.707 l 579.645 588.723
 l 580.531 586.996 581.68 585.668 583.078 584.734 c 584.48 583.809 586.02
 583.344 587.688 583.344 c 589.441 583.344 590.879 583.859 592 584.895 c
 593.113 585.938 593.781 587.32 593.996 589.043 c 594.992 587.156 596.18
 585.734 597.555 584.773 c 598.93 583.82 600.492 583.344 602.246 583.344
 c 603.402 583.344 604.379 583.551 605.172 583.965 c 605.969 584.387 606.633
 584.992 607.16 585.785 c 607.684 586.582 608.062 587.562 608.293 588.723
 c 608.52 589.879 608.633 591.188 608.633 592.645 c h
623.672 605.137 m 622.191 605.137 620.816 604.844 619.551 604.262 c 618.281
 603.688 617.184 602.891 616.25 601.879 c 615.324 600.871 614.594 599.695
 614.066 598.359 c 613.543 597.027 613.281 595.621 613.281 594.141 c 613.281
 592.145 613.727 590.34 614.617 588.723 c 615.504 587.105 616.73 585.801
 618.297 584.816 c 619.859 583.836 621.609 583.344 623.551 583.344 c 625.547
 583.344 627.312 583.844 628.848 584.84 c 630.383 585.836 631.602 587.148
 632.504 588.777 c 633.41 590.41 633.863 592.199 633.863 594.141 c 633.863
 594.301 633.863 594.461 633.863 594.625 c 633.863 594.785 633.848 594.922
 633.82 595.027 c 615.383 595.027 l 615.492 596.617 615.938 598.062 616.719
 599.355 c 617.5 600.648 618.504 601.664 619.727 602.402 c 620.957 603.148
 622.297 603.52 623.754 603.52 c 625.211 603.52 626.582 603.141 627.879 
602.387 c 629.172 601.633 630.074 600.66 630.586 599.477 c 632.367 599.961
 l 631.961 600.957 631.32 601.848 630.441 602.629 c 629.566 603.41 628.543
 604.023 627.367 604.465 c 626.199 604.914 624.965 605.137 623.672 605.137
 c h
615.305 593.453 m 631.922 593.453 l 631.812 591.809 631.383 590.352 630.629
 589.086 c 629.871 587.816 628.879 586.82 627.652 586.094 c 626.426 585.367
 625.074 585 623.594 585 c 622.109 585 620.762 585.367 619.551 586.094 c
 618.336 586.82 617.352 587.816 616.598 589.086 c 615.844 590.352 615.41
 591.809 615.305 593.453 c h
648.254 583.625 m 648.254 585.527 l 646.367 585.582 644.715 586.141 643.297
 587.199 c 641.887 588.27 640.898 589.73 640.332 591.59 c 640.332 604.73
 l 638.309 604.73 l 638.309 583.707 l 640.25 583.707 l 640.25 588.883 l 
640.977 587.398 641.949 586.191 643.16 585.262 c 644.375 584.332 645.652
 583.801 647 583.668 c 647.27 583.641 647.516 583.625 647.73 583.625 c 647.945
 583.625 648.121 583.625 648.254 583.625 c h
660.215 605.137 m 658.758 605.137 657.398 604.844 656.133 604.262 c 654.863
 603.688 653.758 602.891 652.816 601.879 c 651.871 600.871 651.141 599.703
 650.617 598.383 c 650.09 597.062 649.824 595.648 649.824 594.141 c 649.824
 592.117 650.27 590.297 651.16 588.68 c 652.047 587.062 653.273 585.77 654.836
 584.801 c 656.402 583.828 658.18 583.344 660.176 583.344 c 662.09 583.344
 663.773 583.781 665.227 584.652 c 666.684 585.531 667.777 586.727 668.504
 588.234 c 666.523 588.883 l 665.902 587.723 665.02 586.812 663.879 586.148
 c 662.73 585.492 661.469 585.164 660.094 585.164 c 658.559 585.164 657.168
 585.555 655.93 586.336 c 654.688 587.117 653.699 588.188 652.961 589.547
 c 652.219 590.91 651.844 592.441 651.844 594.141 c 651.844 595.809 652.223
 597.348 652.977 598.75 c 653.73 600.148 654.738 601.262 655.992 602.078
 c 657.246 602.906 658.625 603.316 660.133 603.316 c 661.105 603.316 662.055
 603.133 662.988 602.766 c 663.914 602.406 664.723 601.93 665.414 601.336
 c 666.098 600.742 666.551 600.109 666.766 599.434 c 668.746 600 l 668.395
 601 667.789 601.879 666.926 602.645 c 666.062 603.418 665.062 604.023 663.918
 604.465 c 662.77 604.914 661.535 605.137 660.215 605.137 c h
682.047 605.137 m 680.566 605.137 679.191 604.844 677.926 604.262 c 676.656
 603.688 675.559 602.891 674.633 601.879 c 673.699 600.871 672.973 599.695
 672.449 598.359 c 671.922 597.027 671.656 595.621 671.656 594.141 c 671.656
 592.145 672.102 590.34 672.992 588.723 c 673.879 587.105 675.105 585.801
 676.672 584.816 c 678.234 583.836 679.984 583.344 681.926 583.344 c 683.922
 583.344 685.688 583.844 687.223 584.84 c 688.758 585.836 689.98 587.148
 690.887 588.777 c 691.785 590.41 692.238 592.199 692.238 594.141 c 692.238
 594.301 692.238 594.461 692.238 594.625 c 692.238 594.785 692.223 594.922
 692.195 595.027 c 673.758 595.027 l 673.867 596.617 674.312 598.062 675.094
 599.355 c 675.875 600.648 676.879 601.664 678.109 602.402 c 679.332 603.148
 680.672 603.52 682.129 603.52 c 683.586 603.52 684.961 603.141 686.254 
602.387 c 687.547 601.633 688.449 600.66 688.961 599.477 c 690.742 599.961
 l 690.336 600.957 689.699 601.848 688.824 602.629 c 687.945 603.41 686.922
 604.023 685.75 604.465 c 684.578 604.914 683.34 605.137 682.047 605.137
 c h
673.68 593.453 m 690.297 593.453 l 690.188 591.809 689.758 590.352 689.004
 589.086 c 688.246 587.816 687.258 586.82 686.035 586.094 c 684.805 585.367
 683.449 585 681.969 585 c 680.484 585 679.137 585.367 677.926 586.094 c
 676.711 586.82 675.727 587.816 674.973 589.086 c 674.219 590.352 673.785
 591.809 673.68 593.453 c h
673.68 593.453 m f
Q q
150.57 383.395 233.992 233.992 re W n
0 g
267.566 383.395 m 202.828 383.395 150.57 435.656 150.57 500.391 c 150.57
 564.871 202.828 617.387 267.566 617.387 c 332.305 617.387 384.562 564.871
 384.562 500.391 c 384.562 435.656 332.305 383.395 267.566 383.395 c h
267.566 570.59 m 228.828 570.59 197.371 539.133 197.371 500.391 c 197.371
 461.652 228.828 430.195 267.566 430.195 c 306.305 430.195 337.766 461.652
 337.766 500.391 c 337.766 539.133 306.305 570.59 267.566 570.59 c h
242.348 450.215 m 225.969 458.535 214.27 474.395 211.93 493.371 c 232.727
 493.371 l 233.25 476.215 236.887 461.395 242.348 450.215 c h
267.566 554.211 m 275.629 554.211 286.547 536.531 288.367 507.414 c 246.77
 507.414 l 248.586 536.531 259.508 554.211 267.566 554.211 c h
211.93 507.414 m 214.527 526.91 226.75 543.293 244.168 551.352 c 237.93
 540.43 233.77 525.352 232.727 507.414 c h
292.785 450.215 m 298.246 461.395 301.887 476.215 302.668 493.371 c 323.207
 493.371 l 320.867 474.395 309.164 458.535 292.785 450.215 c h
267.566 444.234 m 259.246 444.234 248.066 462.695 246.77 493.371 c 288.367
 493.371 l 287.066 462.695 275.887 444.234 267.566 444.234 c h
290.965 551.09 m 308.125 543.031 320.605 526.91 323.207 507.152 c 302.406
 507.152 l 301.367 525.09 297.465 540.43 290.965 551.09 c h
290.965 551.09 m f
Q Q
showpage
%%Trailer
end
%%EOF
