<svg xmlns="http://www.w3.org/2000/svg" version="1.1"
     width="1000" height="1000" viewBox="0 0 1000 1000">
    <rect width="1000" height="1000" fill="#ffbe79"></rect>
    <g transform="matrix(0.7,0,0,0.7,149.57575757575756,375.0925195484049)">
        <svg viewBox="0 0 396 142" data-background-color="#ffbe79" preserveAspectRatio="xMidYMid meet" height="358"
             width="1000" xmlns="http://www.w3.org/2000/svg">
            <g id="tight-bounds" transform="matrix(1,0,0,1,0.2400000000000091,-0.22241730196927278)">
                <svg viewBox="0 0 395.52 142.44483460393855" height="142.44483460393855" width="395.52">
                    <g>
                        <svg viewBox="0 0 729.1496354800822 262.6001194060538" height="142.44483460393855"
                             width="395.52">
                            <g>
                                <rect width="14.304677260029992" height="262.6001194060538" x="281.8781591100261" y="0"
                                      fill="#374151" opacity="1" stroke-width="0" stroke="transparent" fill-opacity="1"
                                      class="rect-o-0" data-fill-palette-color="primary" rx="1%" id="o-0"
                                      data-palette-color="#374151"></rect>
                            </g>
                            <g transform="matrix(1,0,0,1,333.6296354800823,21.883343283837803)">
                                <svg viewBox="0 0 395.52 218.8334328383782" height="218.8334328383782" width="395.52">
                                    <g id="textblocktransform">
                                        <svg viewBox="0 0 395.52 218.8334328383782" height="218.8334328383782"
                                             width="395.52" id="textblock">
                                            <g>
                                                <svg viewBox="0 0 395.52 158.62179598953793" height="158.62179598953793"
                                                     width="395.52">
                                                    <g transform="matrix(1,0,0,1,0,0)">
                                                        <svg width="395.52"
                                                             viewBox="3.130000114440918 -33.08000183105469 84 33.69000244140625"
                                                             height="158.62179598953793" data-palette-color="#374151">
                                                            <path d="M23.8-30.66L23.8-30.66 23.34-23.49 23.17-23.44Q21.36-26.15 17.02-26.95L17.02-26.95Q15.65-27.22 14.39-27.22 13.13-27.22 12.24-27 11.35-26.78 10.72-26.37L10.72-26.37Q9.38-25.49 9.38-24.07L9.38-24.07Q9.38-22.22 10.55-21.29L10.55-21.29Q12.01-20.17 15.41-19.71 18.8-19.26 20.85-18.48 22.9-17.7 24.22-16.5L24.22-16.5Q26.71-14.26 26.71-10.16L26.71-10.16Q26.71-4.79 22.66-1.88L22.66-1.88Q19.19 0.61 13.92 0.61L13.92 0.61Q9.67 0.61 5.52-1L5.52-1Q4.15-1.54 3.13-2.25L3.13-2.25 3.39-10.4 3.49-10.47Q6.52-5.25 13.43-5.25L13.43-5.25Q18.33-5.25 19.92-7.62L19.92-7.62Q20.46-8.42 20.46-9.41 20.46-10.4 20.14-11.05 19.82-11.69 19.09-12.16L19.09-12.16Q17.68-13.09 14.33-13.4 10.99-13.72 8.86-14.6 6.74-15.48 5.47-16.77L5.47-16.77Q3.17-19.12 3.17-23.32L3.17-23.32Q3.17-27.66 6.23-30.35L6.23-30.35Q9.33-33.08 14.59-33.08 19.85-33.08 23.8-30.66ZM34.08 0L34.08-32.57Q36.52-32.47 37.03-32.47L37.03-32.47 38.79-32.47Q40.09-32.47 40.87-32.67L40.87-32.67 40.84 0 34.08 0ZM61.69 0.02L61.64 0.1Q60.91 0 59.15 0L59.15 0 56.32 0Q55.49 0 54.95 0.05L54.95 0.05 54.93 0Q55.02-0.17 55.02-0.39 55.02-0.61 54.99-0.85 54.95-1.1 54.79-1.73 54.63-2.37 54.32-3.56L54.32-3.56 46.02-32.57Q47.58-32.47 49.8-32.47 52.02-32.47 52.68-32.67L52.68-32.67 58.44-10.57 64.06-32.57Q64.42-32.54 64.72-32.52L64.72-32.52 65.25-32.52Q66.06-32.47 67.28-32.47 68.5-32.47 69.79-32.67L69.79-32.67 75.51-10.57 80.41-32.57Q81.88-32.47 84.25-32.47 86.62-32.47 87.13-32.67L87.13-32.67 80.1-6.91Q78.75-2.47 78.68-1.64 78.61-0.81 78.61-0.49 78.61-0.17 78.71 0.02L78.71 0.02 78.66 0.1Q77.88 0 76.19 0L76.19 0Q74.73 0 73.53 0 72.33 0 71.8 0.05L71.8 0.05 71.77 0Q71.87-0.17 71.87-0.39 71.87-0.61 71.85-0.83 71.82-1.05 71.71-1.67 71.6-2.29 71.36-3.52L71.36-3.52 70.7-6.84 66.69-22.05 62.89-6.91Q61.71-2.25 61.66-1.54L61.66-1.54Q61.57-0.2 61.69 0.02L61.69 0.02Z"
                                                                  opacity="1" transform="matrix(1,0,0,1,0,0)"
                                                                  fill="#374151" class="wordmark-text-0"
                                                                  data-fill-palette-color="primary" id="text-0"></path>
                                                        </svg>
                                                    </g>
                                                </svg>
                                            </g>
                                            <g transform="matrix(1,0,0,1,0,196.06859509956408)">
                                                <svg viewBox="0 0 232.209792 22.764837738814116"
                                                     height="22.764837738814116" width="232.209792">
                                                    <g transform="matrix(1,0,0,1,0,0)">
                                                        <svg width="232.209792"
                                                             viewBox="2.0999999046325684 -26.450000762939453 274.8800048828125 26.950000762939453"
                                                             height="22.764837738814116" data-palette-color="#374151">
                                                            <path d="M14.95 0.5L14.95 0.5Q12.2 0.5 9.85-0.58 7.5-1.65 5.78-3.53 4.05-5.4 3.08-7.88 2.1-10.35 2.1-13.1L2.1-13.1Q2.1-16.8 3.75-19.8 5.4-22.8 8.3-24.63 11.2-26.45 14.8-26.45L14.8-26.45Q18.5-26.45 21.35-24.6 24.2-22.75 25.88-19.73 27.55-16.7 27.55-13.1L27.55-13.1Q27.55-12.8 27.55-12.5 27.55-12.2 27.5-12L27.5-12 4.7-12Q4.9-9.05 6.35-6.65 7.8-4.25 10.08-2.88 12.35-1.5 15.05-1.5L15.05-1.5Q17.75-1.5 20.15-2.9 22.55-4.3 23.5-6.5L23.5-6.5 25.7-5.9Q24.95-4.05 23.33-2.6 21.7-1.15 19.53-0.33 17.35 0.5 14.95 0.5ZM4.6-13.95L4.6-13.95 25.15-13.95Q24.95-17 23.55-19.35 22.15-21.7 19.88-23.05 17.6-24.4 14.85-24.4L14.85-24.4Q12.1-24.4 9.85-23.05 7.6-21.7 6.2-19.35 4.8-17 4.6-13.95ZM44.1 0.5L44.1 0.5Q41.4 0.5 39.05-0.58 36.7-1.65 34.95-3.53 33.2-5.4 32.22-7.85 31.25-10.3 31.25-13.1L31.25-13.1Q31.25-16.85 32.9-19.85 34.55-22.85 37.45-24.65 40.35-26.45 44.05-26.45L44.05-26.45Q47.6-26.45 50.3-24.83 53-23.2 54.35-20.4L54.35-20.4 51.9-19.6Q50.75-21.75 48.62-22.98 46.5-24.2 43.95-24.2L43.95-24.2Q41.1-24.2 38.8-22.75 36.5-21.3 35.12-18.78 33.75-16.25 33.75-13.1L33.75-13.1Q33.75-10 35.15-7.4 36.55-4.8 38.87-3.28 41.2-1.75 44-1.75L44-1.75Q45.8-1.75 47.52-2.43 49.25-3.1 50.52-4.2 51.8-5.3 52.2-6.55L52.2-6.55 54.65-5.85Q54-4 52.4-2.58 50.8-1.15 48.67-0.33 46.55 0.5 44.1 0.5ZM70.95 0.5L70.95 0.5Q68.2 0.5 65.87-0.55 63.55-1.6 61.85-3.48 60.15-5.35 59.2-7.8 58.25-10.25 58.25-12.95L58.25-12.95Q58.25-15.7 59.2-18.13 60.15-20.55 61.87-22.43 63.6-24.3 65.92-25.38 68.25-26.45 70.95-26.45L70.95-26.45Q73.65-26.45 75.95-25.38 78.25-24.3 80-22.43 81.75-20.55 82.7-18.13 83.65-15.7 83.65-12.95L83.65-12.95Q83.65-10.25 82.7-7.8 81.75-5.35 80.02-3.48 78.3-1.6 75.97-0.55 73.65 0.5 70.95 0.5ZM60.75-12.85L60.75-12.85Q60.75-9.8 62.12-7.28 63.5-4.75 65.8-3.25 68.09-1.75 70.9-1.75L70.9-1.75Q73.7-1.75 76.02-3.28 78.34-4.8 79.72-7.38 81.09-9.95 81.09-13L81.09-13Q81.09-16.05 79.72-18.6 78.34-21.15 76.02-22.68 73.7-24.2 70.95-24.2L70.95-24.2Q68.15-24.2 65.84-22.65 63.55-21.1 62.15-18.55 60.75-16 60.75-12.85ZM127.84-14.95L127.84 0 125.34 0 125.34-14.5Q125.34-19.45 123.82-21.8 122.29-24.15 119.14-24.15L119.14-24.15Q115.94-24.15 113.47-21.88 110.99-19.6 109.99-16.05L109.99-16.05 109.99 0 107.49 0 107.49-14.5Q107.49-19.5 105.99-21.83 104.49-24.15 101.34-24.15L101.34-24.15Q98.14-24.15 95.67-21.93 93.19-19.7 92.14-16.1L92.14-16.1 92.14 0 89.64 0 89.64-26 91.99-26 91.99-19.8Q93.64-23 96.24-24.73 98.84-26.45 101.94-26.45L101.94-26.45Q105.19-26.45 107.27-24.53 109.34-22.6 109.74-19.4L109.74-19.4Q111.59-22.9 114.14-24.68 116.69-26.45 119.94-26.45L119.94-26.45Q122.09-26.45 123.57-25.68 125.04-24.9 126.02-23.43 126.99-21.95 127.42-19.8 127.84-17.65 127.84-14.95L127.84-14.95ZM173.59-14.95L173.59 0 171.09 0 171.09-14.5Q171.09-19.45 169.56-21.8 168.04-24.15 164.89-24.15L164.89-24.15Q161.69-24.15 159.22-21.88 156.74-19.6 155.74-16.05L155.74-16.05 155.74 0 153.24 0 153.24-14.5Q153.24-19.5 151.74-21.83 150.24-24.15 147.09-24.15L147.09-24.15Q143.89-24.15 141.42-21.93 138.94-19.7 137.89-16.1L137.89-16.1 137.89 0 135.39 0 135.39-26 137.74-26 137.74-19.8Q139.39-23 141.99-24.73 144.59-26.45 147.69-26.45L147.69-26.45Q150.94-26.45 153.02-24.53 155.09-22.6 155.49-19.4L155.49-19.4Q157.34-22.9 159.89-24.68 162.44-26.45 165.69-26.45L165.69-26.45Q167.84-26.45 169.31-25.68 170.79-24.9 171.77-23.43 172.74-21.95 173.17-19.8 173.59-17.65 173.59-14.95L173.59-14.95ZM192.19 0.5L192.19 0.5Q189.44 0.5 187.09-0.58 184.74-1.65 183.01-3.53 181.29-5.4 180.31-7.88 179.34-10.35 179.34-13.1L179.34-13.1Q179.34-16.8 180.99-19.8 182.64-22.8 185.54-24.63 188.44-26.45 192.04-26.45L192.04-26.45Q195.74-26.45 198.59-24.6 201.44-22.75 203.11-19.73 204.79-16.7 204.79-13.1L204.79-13.1Q204.79-12.8 204.79-12.5 204.79-12.2 204.74-12L204.74-12 181.94-12Q182.14-9.05 183.59-6.65 185.04-4.25 187.31-2.88 189.59-1.5 192.29-1.5L192.29-1.5Q194.99-1.5 197.39-2.9 199.79-4.3 200.74-6.5L200.74-6.5 202.94-5.9Q202.19-4.05 200.56-2.6 198.94-1.15 196.76-0.33 194.59 0.5 192.19 0.5ZM181.84-13.95L181.84-13.95 202.39-13.95Q202.19-17 200.79-19.35 199.39-21.7 197.11-23.05 194.84-24.4 192.09-24.4L192.09-24.4Q189.34-24.4 187.09-23.05 184.84-21.7 183.44-19.35 182.04-17 181.84-13.95ZM222.59-26.1L222.59-23.75Q219.09-23.65 216.46-21.68 213.84-19.7 212.79-16.25L212.79-16.25 212.79 0 210.29 0 210.29-26 212.69-26 212.69-19.6Q214.04-22.35 216.29-24.08 218.54-25.8 221.04-26.05L221.04-26.05Q221.54-26.1 221.94-26.1 222.34-26.1 222.59-26.1L222.59-26.1ZM237.38 0.5L237.38 0.5Q234.68 0.5 232.33-0.58 229.98-1.65 228.23-3.53 226.48-5.4 225.51-7.85 224.53-10.3 224.53-13.1L224.53-13.1Q224.53-16.85 226.18-19.85 227.83-22.85 230.73-24.65 233.63-26.45 237.33-26.45L237.33-26.45Q240.88-26.45 243.58-24.83 246.28-23.2 247.63-20.4L247.63-20.4 245.18-19.6Q244.03-21.75 241.91-22.98 239.78-24.2 237.23-24.2L237.23-24.2Q234.38-24.2 232.08-22.75 229.78-21.3 228.41-18.78 227.03-16.25 227.03-13.1L227.03-13.1Q227.03-10 228.43-7.4 229.83-4.8 232.16-3.28 234.48-1.75 237.28-1.75L237.28-1.75Q239.08-1.75 240.81-2.43 242.53-3.1 243.81-4.2 245.08-5.3 245.48-6.55L245.48-6.55 247.93-5.85Q247.28-4 245.68-2.58 244.08-1.15 241.96-0.33 239.83 0.5 237.38 0.5ZM264.38 0.5L264.38 0.5Q261.63 0.5 259.28-0.58 256.93-1.65 255.21-3.53 253.48-5.4 252.51-7.88 251.53-10.35 251.53-13.1L251.53-13.1Q251.53-16.8 253.18-19.8 254.83-22.8 257.73-24.63 260.63-26.45 264.23-26.45L264.23-26.45Q267.93-26.45 270.78-24.6 273.63-22.75 275.31-19.73 276.98-16.7 276.98-13.1L276.98-13.1Q276.98-12.8 276.98-12.5 276.98-12.2 276.93-12L276.93-12 254.13-12Q254.33-9.05 255.78-6.65 257.23-4.25 259.51-2.88 261.78-1.5 264.48-1.5L264.48-1.5Q267.18-1.5 269.58-2.9 271.98-4.3 272.93-6.5L272.93-6.5 275.13-5.9Q274.38-4.05 272.76-2.6 271.13-1.15 268.96-0.33 266.78 0.5 264.38 0.5ZM254.03-13.95L254.03-13.95 274.58-13.95Q274.38-17 272.98-19.35 271.58-21.7 269.31-23.05 267.03-24.4 264.28-24.4L264.28-24.4Q261.53-24.4 259.28-23.05 257.03-21.7 255.63-19.35 254.23-17 254.03-13.95Z"
                                                                  opacity="1" transform="matrix(1,0,0,1,0,0)"
                                                                  fill="#374151" class="slogan-text-1"
                                                                  data-fill-palette-color="secondary"
                                                                  id="text-1"></path>
                                                        </svg>
                                                    </g>
                                                </svg>
                                            </g>
                                        </svg>
                                    </g>
                                </svg>
                            </g>
                            <g transform="matrix(1,0,0,1,0,9.084379703026926)">
                                <svg viewBox="0 0 244.43135999999996 244.43135999999996" height="244.43135999999996"
                                     width="244.43135999999996">
                                    <g>
                                        <svg xmlns="http://www.w3.org/2000/svg" version="1.1" x="0" y="0"
                                             viewBox="5 5 90 90" enable-background="new 0 0 100 100"
                                             xml:space="preserve" height="244.43135999999996" width="244.43135999999996"
                                             class="icon-icon-0" data-fill-palette-color="accent" id="icon-0"><path d="M50 5C25.1 5 5 25.1 5 50c0 24.8 20.1 45 45 45 24.9 0 45-20.2 45-45C95 25.1 74.9 5 50 5L50 5zM50 77c-14.9 0-27-12.1-27-27 0-14.9 12.1-27 27-27 14.9 0 27 12.1 27 27C77 64.9 64.9 77 50 77L50 77zM40.3 30.7C34 33.9 29.5 40 28.6 47.3h8C36.8 40.7 38.2 35 40.3 30.7L40.3 30.7zM50 70.7c3.1 0 7.3-6.8 8-18H42C42.7 63.9 46.9 70.7 50 70.7L50 70.7zM28.6 52.7c1 7.5 5.7 13.8 12.4 16.9-2.4-4.2-4-10-4.4-16.9H28.6zM59.7 30.7c2.1 4.3 3.5 10 3.8 16.6h7.9C70.5 40 66 33.9 59.7 30.7L59.7 30.7zM50 28.4c-3.2 0-7.5 7.1-8 18.9H58C57.5 35.5 53.2 28.4 50 28.4L50 28.4zM59 69.5c6.6-3.1 11.4-9.3 12.4-16.9h-8C63 59.5 61.5 65.4 59 69.5z" fill="#374151" data-fill-palette-color="accent"></path></svg>
                                    </g>
                                </svg>
                            </g>
                        </svg>
                    </g>
                    <defs></defs>
                </svg>
                <rect width="395.52" height="142.44483460393855" fill="none" stroke="none" visibility="hidden"></rect>
            </g>
        </svg>
    </g>
</svg>